<svg width="22" height="22" viewBox="0 0 22 22" fill="none" xmlns="http://www.w3.org/2000/svg">
<path d="M11.0002 0C4.92515 0 0 4.92436 0 10.9996C0 17.0748 4.92515 22 11.0002 22C17.0749 22 22 17.0748 22 10.9996C22 4.92431 17.0749 0 11.0002 0ZM8.51902 16.2459C8.51902 16.2535 8.51862 16.2602 8.51795 16.2658C8.51268 16.2641 8.50651 16.2611 8.49954 16.2577L4.69286 14.3544C4.63957 14.3277 4.58096 14.2329 4.58096 14.1732L4.58119 5.44635L8.51902 7.41535V16.2459ZM8.9995 12.0892V8.11572L12.5316 13.855L8.9995 12.0892ZM10.5743 9.75799L13.2812 5.37827L17.2539 7.3646L13.1775 13.9888L10.5743 9.75799ZM17.3553 16.243C17.3553 16.2506 17.3548 16.2573 17.3542 16.2628C17.3489 16.2607 17.3428 16.2582 17.336 16.2548L13.5211 14.3476L17.3553 8.11657V16.243Z" fill="white"/>
</svg>
