<svg width="27" height="26" viewBox="0 0 27 26" fill="none" xmlns="http://www.w3.org/2000/svg">
<g filter="url(#filter0_d)">
<path d="M13.5 0.28125C8.41383 0.28125 4.29688 4.18075 4.29688 9C4.29688 13.8185 8.41301 17.7188 13.5 17.7188C15.287 17.7188 17.0381 17.2216 18.5249 16.3047C18.9704 16.0299 19.0676 15.4508 18.7309 15.0611L18.3533 14.624C18.0686 14.2946 17.5673 14.2138 17.189 14.4437C16.0947 15.1086 14.8105 15.4688 13.5 15.4688C9.73496 15.4688 6.67188 12.5669 6.67188 9C6.67188 5.43312 9.73496 2.53125 13.5 2.53125C17.2161 2.53125 20.3281 4.55692 20.3281 8.15625C20.3281 9.51982 19.5454 10.9597 18.1695 11.0986C17.5257 11.0826 17.542 10.6466 17.6694 10.0431L18.539 5.78528C18.6453 5.26465 18.2243 4.78125 17.6646 4.78125H15.9954C15.8721 4.78125 15.7532 4.82423 15.6613 4.90199C15.5693 4.97976 15.5108 5.08686 15.4969 5.20288L15.4966 5.20611C14.9512 4.57678 13.9956 4.44059 13.2711 4.44059C10.5035 4.44059 8.15625 6.6285 8.15625 9.76535C8.15625 12.0612 9.52132 13.4873 11.7188 13.4873C12.7201 13.4873 13.8477 12.9376 14.5016 12.1397C14.855 13.3387 16.0087 13.3386 17.1256 13.3386C21.1671 13.3386 22.7031 10.821 22.7031 8.15625C22.7031 3.3628 18.6219 0.28125 13.5 0.28125ZM12.6955 10.9839C11.8698 10.9839 11.3569 10.4346 11.3569 9.55051C11.3569 7.96873 12.4991 6.99363 13.5327 6.99363C14.3599 6.99363 14.8538 7.52945 14.8538 8.42695C14.8538 10.0111 13.5967 10.9839 12.6955 10.9839Z" fill="#F9BA42"/>
</g>
<defs>
<filter id="filter0_d" x="0" y="0" width="27" height="26" filterUnits="userSpaceOnUse" color-interpolation-filters="sRGB">
<feFlood flood-opacity="0" result="BackgroundImageFix"/>
<feColorMatrix in="SourceAlpha" type="matrix" values="0 0 0 0 0 0 0 0 0 0 0 0 0 0 0 0 0 0 127 0"/>
<feOffset dy="4"/>
<feGaussianBlur stdDeviation="2"/>
<feColorMatrix type="matrix" values="0 0 0 0 0 0 0 0 0 0 0 0 0 0 0 0 0 0 0.25 0"/>
<feBlend mode="normal" in2="BackgroundImageFix" result="effect1_dropShadow"/>
<feBlend mode="normal" in="SourceGraphic" in2="effect1_dropShadow" result="shape"/>
</filter>
</defs>
</svg>
