<?xml version="1.0" encoding="utf-8"?>
<!-- Generator: Adobe Illustrator 22.1.0, SVG Export Plug-In . SVG Version: 6.00 Build 0)  -->
<svg version="1.1" id="Layer_1" xmlns="http://www.w3.org/2000/svg" xmlns:xlink="http://www.w3.org/1999/xlink" x="0px" y="0px"
	 viewBox="0 0 181 47.2" style="enable-background:new 0 0 181 47.2;" xml:space="preserve">
<style type="text/css">
	.st0{fill:#FFFFFF;}
</style>
<path class="st0" d="M74.2,41.2c-0.6-1.1-2-1.3-3-0.7c-0.1,0.1-0.3,0.2-0.4,0c-0.1-0.3-1.1-0.3-1.3,0c0,0.1-0.1,0.2-0.1,0.3
	c0,0.2-0.1,0.5-0.1,0.7c-0.1,0.6-0.2,1.1-0.4,1.7c-0.1,0.7-0.3,1.4-0.4,2.2c-0.1,0.5-0.2,1-0.3,1.6c0,0.3,0,0.4,0.3,0.4
	c0.1,0,0.3,0,0.5,0c0.3,0,0.5-0.1,0.5-0.4c0.1-0.6,0.2-1.3,0.4-1.9c0-0.1,0.1-0.2,0.1-0.2c0.1,0,0.1,0,0.2,0.1
	c0.4,0.5,0.9,0.7,1.5,0.6c0.9,0,1.6-0.3,2.1-1c0.4-0.5,0.6-1.1,0.7-1.7C74.5,42.1,74.4,41.6,74.2,41.2z M72,44.1
	c-0.8,0.3-1.6,0-1.7-0.9c-0.1-1.1,0.8-2.1,1.8-1.9c0.6,0.1,0.9,0.6,0.9,1.3C73.1,43.3,72.8,43.9,72,44.1z"/>
<path class="st0" d="M43.6,38.3c-0.1,0-0.3,0-0.4,0c-0.3,0-0.4,0.1-0.5,0.4c-0.1,0.7-0.3,1.4-0.4,2c0,0.1-0.1,0.1-0.1,0.2
	c-0.1,0-0.1-0.1-0.2-0.1c-0.2-0.1-0.3-0.3-0.5-0.4c-1-0.4-1.9-0.3-2.7,0.4c-1,0.8-1.3,1.9-1,3.1c0.2,0.9,1,1.6,2,1.5
	c0.5,0,0.9-0.1,1.3-0.4c0.1,0,0.3,0,0.3,0c0.1,0.4,0.4,0.3,0.7,0.3c0.1,0,0.2,0,0.3,0c0.2,0,0.3-0.1,0.3-0.3c0-0.3,0.1-0.6,0.2-0.9
	c0.2-1.2,0.5-2.5,0.8-3.7c0.1-0.6,0.2-1.1,0.3-1.7C44,38.4,43.9,38.3,43.6,38.3z M40.5,44.3c-0.8,0.2-1.6-0.4-1.5-1.2
	c0-0.8,0.5-1.5,1.3-1.7c0.7-0.2,1.6,0.2,1.6,1.3C41.8,43.4,41.3,44.1,40.5,44.3z"/>
<path class="st0" d="M11.7,40.2c-0.5,0-0.5,0-0.6,0.5c0,0.1-0.1,0.1-0.1,0.2c-0.1,0-0.1-0.1-0.2-0.1c-0.2-0.1-0.4-0.4-0.7-0.4
	C9,40,8.1,40.2,7.3,41c-0.8,0.8-1.1,2.2-0.6,3.3c0.2,0.5,0.5,0.8,1,1c0.7,0.3,1.4,0.2,2.1-0.2c0.1,0,0.3,0,0.3,0
	c0.1,0.3,0.4,0.3,0.7,0.3c0,0,0,0,0.1,0c0.4,0,0.5-0.1,0.6-0.5c0-0.2,0-0.3,0.1-0.5c0.2-1.1,0.5-2.3,0.7-3.4
	C12.4,40.2,12.4,40.2,11.7,40.2z M9.1,44.3c-0.6,0-1.2-0.4-1.3-1c-0.1-0.8,0.2-1.5,0.9-1.9c0.8-0.5,2,0.1,1.9,1.1
	C10.7,43.4,10,44.2,9.1,44.3z"/>
<path class="st0" d="M108.4,40.2C108.4,40.2,108.4,40.2,108.4,40.2c-0.4,0-0.5,0.1-0.6,0.4c0,0.3-0.2,0.3-0.4,0.1
	c-0.8-0.7-1.7-0.8-2.6-0.3c-1.1,0.6-1.6,1.5-1.6,2.6c0,0.6,0.1,1.1,0.4,1.5c0.7,1,2.1,1.1,3,0.5c0.1-0.1,0.3-0.1,0.3,0.1
	c0,0.2,0.2,0.2,0.4,0.2c0.1,0,0.3,0,0.4,0c0.4,0,0.5-0.1,0.6-0.5c0-0.3,0.1-0.5,0.1-0.8c0.2-1,0.4-2,0.6-3.1
	C109.2,40.2,109.2,40.2,108.4,40.2z M107.4,42.6c0,0.9-0.6,1.6-1.5,1.7c-0.5,0-1-0.2-1.2-0.8c-0.3-0.9,0.2-2,1.2-2.2
	C106.6,41.1,107.5,41.7,107.4,42.6z"/>
<path class="st0" d="M36.6,40.2c-0.1,0-0.2,0-0.3,0c-0.3,0-0.5,0.1-0.6,0.4c-0.1,0.3-0.2,0.3-0.4,0.1c-0.2-0.2-0.4-0.3-0.7-0.4
	c-0.5-0.2-1.1-0.2-1.6,0c-0.6,0.2-1.1,0.6-1.4,1.1c-0.5,0.7-0.6,1.5-0.4,2.3c0.1,0.5,0.3,1,0.8,1.3c0.7,0.5,1.8,0.5,2.6,0
	c0.1,0,0.3,0,0.3,0c0.1,0.4,0.4,0.3,0.6,0.3c0.6,0,0.7,0,0.8-0.6c0.2-0.8,0.3-1.6,0.5-2.4c0.1-0.5,0.2-1,0.3-1.5
	C37.1,40.3,37,40.2,36.6,40.2z M35.2,43.1c-0.2,0.7-0.7,1.2-1.5,1.2c-0.9,0-1.4-0.7-1.3-1.5c0.1-0.7,0.5-1.2,1.2-1.4
	c0.1,0,0.3-0.1,0.4-0.1C34.9,41.3,35.5,42.2,35.2,43.1z"/>
<path class="st0" d="M58,44.6c0.4-0.3,0.4-0.3,0.1-0.7c-0.1-0.1-0.1-0.1-0.2-0.2c-0.1-0.2-0.3-0.1-0.5,0c-0.3,0.2-0.7,0.4-1.1,0.5
	c-0.9,0.3-2.1-0.3-2.4-1.2c-0.5-1.5,0.6-3.1,2.3-3.1c0.6,0,1.2,0.2,1.6,0.6c0.1,0.1,0.3,0.1,0.4,0c0.2-0.2,0.3-0.4,0.5-0.5
	c0.1-0.1,0.1-0.2,0-0.4c-0.4-0.4-0.9-0.7-1.4-0.8c-1.7-0.3-3.1,0.1-4.2,1.6c-0.6,0.8-0.8,1.8-0.5,2.8c0.3,1.5,1.5,2.4,3.1,2.4
	C56.5,45.4,57.4,45.1,58,44.6z"/>
<path class="st0" d="M47.8,40.2c-0.7-0.1-1.4-0.1-2.1,0.3c-0.7,0.3-1.1,0.9-1.4,1.6c-0.4,1-0.1,2.4,1,2.9c0.2,0.1,0.4,0.2,0.6,0.2
	c0.8,0.2,1.5,0.1,2.2-0.2c0.6-0.3,0.6-0.4,0.2-0.9c-0.1-0.2-0.3-0.2-0.5-0.1c-0.3,0.1-0.5,0.2-0.8,0.3c-0.6,0.1-1.2-0.2-1.4-0.7
	c-0.1-0.3-0.1-0.4,0.3-0.4c0.5,0,1,0,1.6,0c0.5,0,1.1,0,1.6,0c0.2,0,0.3,0,0.3-0.2C49.6,41.8,49.2,40.5,47.8,40.2z M47.9,42.3
	c-0.3,0-0.7,0-1,0c-0.3,0-0.6,0-1,0c-0.1,0-0.2,0-0.2-0.1c0,0,0-0.2,0-0.2c0.4-0.6,1.1-0.8,1.8-0.7c0.3,0.1,0.7,0.4,0.7,0.8
	C48.2,42.3,48.1,42.3,47.9,42.3z"/>
<path class="st0" d="M93.8,39.8c0.5,0,0.5,0,0.5-0.5c0-0.1,0-0.2,0-0.3c0.1-0.4,0-0.5-0.4-0.5c-1.2,0-2.5,0-3.7,0
	c-0.4,0-0.5,0.1-0.6,0.5c-0.1,0.6-0.2,1.2-0.3,1.8c-0.3,1.3-0.6,2.7-0.8,4c0,0.2,0,0.4,0.3,0.4c0.2,0,0.4,0,0.6,0
	c0.4,0,0.5-0.1,0.5-0.5c0.1-0.6,0.2-1.1,0.3-1.7c0.1-0.4,0.1-0.4,0.5-0.4c0.6,0,1.2,0,1.8,0c0.8,0,0.7,0.1,0.9-0.7
	c0.1-0.4,0-0.5-0.3-0.5c-0.7,0-1.4,0-2.2,0c-0.4,0-0.4,0-0.4-0.4c0.1-0.3,0.1-0.7,0.2-1c0-0.2,0.1-0.3,0.4-0.3c0.4,0,0.9,0,1.3,0
	C93,39.8,93.5,39.8,93.8,39.8z"/>
<path class="st0" d="M2.6,38.6c-0.2,0-0.3,0-0.3,0.2c-0.1,0.8-0.3,1.5-0.5,2.3c-0.1,0.7-0.3,1.4-0.4,2.1c-0.1,0.5-0.2,1.1-0.3,1.6
	c0,0.3,0,0.4,0.3,0.4c0.1,0,0.3,0,0.5,0c0.3,0,0.5-0.1,0.5-0.4c0.1-0.6,0.2-1.2,0.4-1.8c0.1-0.3,0.1-0.4,0.5-0.4c0.7,0,1.4,0,2.1,0
	c0.6,0,0.6,0,0.7-0.6C6,41.5,6,41.5,5.4,41.5c-0.7,0-1.3,0-2,0c-0.3,0-0.4-0.1-0.3-0.4c0.1-0.3,0.1-0.6,0.2-0.9
	c0-0.3,0.2-0.4,0.5-0.4c0.7,0,1.4,0,2.1,0c0.9,0,0.9,0,1-0.8c0-0.3,0-0.4-0.3-0.4c-0.7,0-1.3,0-2,0C3.9,38.6,3.2,38.6,2.6,38.6z"/>
<path class="st0" d="M123.1,43.2c0.5,0,1,0,1.6,0c0.4,0,0.8,0,1.2,0c0.8,0,0.8,0,0.8-0.8c0-1-0.6-1.9-1.7-2.2
	c-0.9-0.2-1.7,0-2.4,0.5c-0.9,0.6-1.2,1.6-1.2,2.6c0.1,0.9,0.5,1.5,1.3,1.8c0.8,0.3,1.7,0.3,2.5,0c0.7-0.3,0.8-0.5,0.3-1.1l0,0
	c-0.1-0.1-0.3-0.2-0.4,0c-0.4,0.3-0.8,0.3-1.2,0.3c-0.5,0-0.9-0.2-1.1-0.7C122.7,43.4,122.8,43.2,123.1,43.2z M123.1,41.9
	c0.4-0.6,1.2-0.9,1.9-0.6c0.3,0.1,0.5,0.4,0.6,0.7c0,0.2,0,0.3-0.2,0.3c-0.3,0-0.7,0-1,0s-0.7,0-1,0C123,42.3,122.9,42.2,123.1,41.9
	z"/>
<path class="st0" d="M82.7,40.2c-0.8-0.1-1.5-0.1-2.2,0.3s-1.2,0.9-1.4,1.6c-0.2,0.8-0.2,1.5,0.2,2.2c0.3,0.5,0.8,0.8,1.3,0.9
	c0.8,0.2,1.5,0.1,2.2-0.2c1-0.5,1.6-1.4,1.5-2.5C84.5,41.4,83.7,40.4,82.7,40.2z M82.1,44.2c-1,0.3-1.8-0.1-1.8-1.2
	c0-1,0.9-1.8,1.9-1.6c0.4,0.1,0.7,0.4,0.9,0.8C83.3,42.8,82.9,43.9,82.1,44.2z"/>
<path class="st0" d="M64,40.2c-0.5,0-0.5,0.1-0.5,0.6c0,0.3,0.1,0.6,0.2,0.9c0.2,1.1,0.5,2.1,0.7,3.2c0,0.1,0,0.3,0,0.5
	c-0.2,0.5-0.8,0.8-1.3,0.6c-0.3-0.1-1,0.5-0.9,0.8c0,0.1,0.1,0.1,0.2,0.2c0.7,0.5,1.8,0.4,2.3-0.2c0.5-0.5,0.8-1.1,1.2-1.7
	c0.6-0.9,1.1-1.8,1.6-2.7c0.3-0.6,0.7-1.1,1-1.6c0.1-0.1,0.1-0.3,0-0.4c-0.3,0-0.7-0.1-1,0c-0.1,0-0.3,0.3-0.4,0.4
	c-0.5,0.9-1,1.8-1.5,2.7c0,0.1-0.1,0.1-0.2,0.1c-0.1,0-0.1-0.1-0.2-0.2c0-0.1-0.1-0.3-0.1-0.5c-0.1-0.7-0.2-1.4-0.4-2.1
	c-0.1-0.6-0.1-0.6-0.7-0.6C64.1,40.2,64,40.2,64,40.2z"/>
<path class="st0" d="M97.7,40.8c-0.1,0.5-0.2,1-0.3,1.6c-0.2,0.8-0.3,1.7-0.5,2.6c-0.1,0.3,0,0.4,0.4,0.4c0.1,0,0.2,0,0.4,0
	c0.4,0,0.5-0.1,0.6-0.5c0.1-0.6,0.2-1.2,0.4-1.8c0.1-0.7,0.3-1.3,1-1.6c0.4-0.2,0.9-0.2,1.2,0.1c0.3,0.2,0.3,0.6,0.2,0.9
	c-0.1,0.4-0.2,0.8-0.2,1.2c-0.1,0.4-0.1,0.8-0.2,1.1c-0.1,0.4,0,0.5,0.4,0.5c0.1,0,0.2,0,0.3,0c0.4,0,0.5-0.1,0.6-0.5
	c0.1-0.3,0.1-0.7,0.2-1c0.1-0.7,0.3-1.5,0.3-2.2c0-0.5-0.4-1.1-0.9-1.3c-0.8-0.3-1.5-0.2-2.2,0.2c0,0-0.2,0-0.2,0
	c-0.1-0.4-0.4-0.3-0.7-0.3C97.8,40.2,97.8,40.2,97.7,40.8z"/>
<path class="st0" d="M114.4,45.3c0.2,0,0.3-0.1,0.4-0.3c0.2-1,0.4-1.9,0.6-2.9c0.1-0.6,0-1.2-0.5-1.6c-0.6-0.5-1.8-0.6-2.5-0.1
	c-0.1,0.1-0.2,0.2-0.4,0c-0.2-0.3-1.1-0.3-1.3-0.1c-0.1,0.1-0.1,0.2-0.1,0.3c0,0.2,0,0.4-0.1,0.6c-0.2,1.2-0.5,2.5-0.7,3.7
	c0,0.1,0,0.2,0,0.2c0.1,0.2,1.1,0.1,1.2,0c0,0,0-0.1,0-0.1c0.2-0.8,0.3-1.5,0.5-2.3c0.1-0.4,0.3-0.8,0.6-1c0.4-0.4,1.1-0.5,1.5-0.1
	c0.5,0.4,0.4,0.8,0.3,1.3c-0.1,0.6-0.3,1.2-0.4,1.8c-0.1,0.6-0.1,0.6,0.6,0.7C114.2,45.3,114.3,45.3,114.4,45.3z"/>
<path class="st0" d="M23.1,38.6c-0.5,0-0.5,0-0.6,0.5c0,0.1-0.1,0.2-0.1,0.3c-0.1,0.3,0,0.4,0.3,0.4c0.4,0,0.9,0,1.3,0
	c0.3,0,0.4,0.1,0.3,0.4c0,0.3-0.1,0.6-0.2,0.8c-0.2,0.9-0.4,1.8-0.6,2.7c-0.1,0.4-0.1,0.7-0.2,1.1c-0.1,0.3,0,0.4,0.3,0.4
	c0.1,0,0.3,0,0.5,0c0.4,0,0.5-0.1,0.6-0.5c0.3-1.6,0.6-3.2,1-4.7c0-0.2,0.1-0.3,0.3-0.3c0.3,0,0.7,0,1,0c0.8,0,0.8,0,0.9-0.8
	c0-0.3,0-0.4-0.3-0.4c-0.8,0-1.6,0-2.4,0C24.5,38.6,23.8,38.6,23.1,38.6z"/>
<path class="st0" d="M120.4,44.7c0.4-0.4,0.4-0.4,0-0.8c0,0,0,0-0.1-0.1c-0.2-0.2-0.3-0.2-0.6,0c-0.4,0.4-1.3,0.5-1.7,0.3
	c-0.5-0.3-0.7-0.7-0.7-1.2c0-0.6,0.2-1.1,0.8-1.4c0.6-0.4,1.2-0.2,1.8,0.2c0.2,0.1,0.3,0.1,0.5,0c0.1-0.1,0.2-0.2,0.3-0.3
	c0.2-0.2,0.2-0.3,0-0.6c-0.3-0.3-0.7-0.5-1.2-0.6c-0.7-0.2-1.4-0.1-2.1,0.2c-0.9,0.4-1.4,1.2-1.5,2.2c-0.1,0.5,0,1.1,0.2,1.6
	c0.4,0.8,1.2,1.2,2.3,1.2C119.1,45.4,120.1,45,120.4,44.7z"/>
<path class="st0" d="M78.9,40.9c0-0.3,0-0.4-0.3-0.4c-0.2,0-0.4,0-0.7,0c-0.3,0-0.4-0.1-0.3-0.4c0-0.2,0.1-0.4,0.2-0.6
	c0.1-0.3,0-0.4-0.3-0.4c-0.2,0-0.4,0-0.6,0c-0.3,0-0.4,0.1-0.5,0.4c0,0.2-0.1,0.5-0.1,0.7c0,0.2-0.1,0.3-0.3,0.3
	c-0.4,0-0.6,0.2-0.6,0.6c0,0.2,0.1,0.2,0.2,0.3c0.4,0,0.4,0.1,0.3,0.5c-0.1,0.7-0.3,1.3-0.4,1.9c0,0.4-0.1,0.8,0.2,1.1
	c0.5,0.7,1.7,0.5,2.3,0.2c0.1,0,0.1-0.2,0.1-0.3c0-0.2-0.1-0.4-0.1-0.6c0-0.2-0.1-0.2-0.3-0.1c-0.1,0-0.2,0.1-0.3,0.1
	c-0.5,0.1-0.7-0.1-0.6-0.6c0.1-0.6,0.2-1.1,0.4-1.7c0.1-0.6,0.1-0.6,0.8-0.6C78.7,41.3,78.8,41.3,78.9,40.9z"/>
<path class="st0" d="M28.6,44.6c0.1-0.6,0.2-1.1,0.3-1.6c0.2-0.7,0.6-1.3,1.4-1.5c0.8-0.2,0.8-0.2,0.8-1c0-0.3-0.1-0.4-0.4-0.3
	c-0.4,0.1-0.8,0.2-1.1,0.5c-0.1,0.1-0.2,0.1-0.2-0.1c-0.1-0.4-0.1-0.4-0.5-0.4c-0.1,0-0.2,0-0.3,0c-0.3,0-0.5,0.1-0.5,0.4
	c-0.1,0.8-0.3,1.5-0.5,2.3c-0.1,0.6-0.2,1.1-0.3,1.7c-0.2,0.7-0.1,0.7,0.5,0.7C28.5,45.3,28.6,45.2,28.6,44.6z"/>
<path class="st0" d="M61.4,40.5c0-0.2-0.1-0.3-0.2-0.3c-0.2,0-0.5,0-0.8,0c-0.1,0-0.2,0.1-0.3,0.3c-0.1,0.4-0.1,0.7-0.2,1.1
	c-0.2,1.1-0.4,2.2-0.7,3.3c0,0.3,0,0.4,0.3,0.4c0.2,0,0.4,0,0.6,0c0.3,0,0.4-0.1,0.5-0.4c0.1-0.6,0.2-1.1,0.3-1.7
	c0.2-1,0.9-1.7,1.9-1.7c0.1,0,0.2-0.1,0.3-0.2c0.1-0.2,0.1-0.4,0.1-0.6c0-0.3-0.1-0.5-0.4-0.4c-0.3,0.1-0.6,0.2-0.9,0.4
	c-0.1,0-0.2,0.1-0.4,0.2C61.4,40.6,61.4,40.6,61.4,40.5z"/>
<path class="st0" d="M17.1,44.9c0.1-0.6,0.2-1.1,0.3-1.7c0.1-0.8,0.7-1.6,1.5-1.7c0.8-0.2,0.8-0.2,0.8-1c0,0,0-0.1,0-0.1
	c-0.1-0.1-0.2-0.2-0.3-0.2c-0.4,0.1-0.8,0.2-1.2,0.5c0,0-0.1,0.1-0.2,0.1c0-0.1-0.1-0.2-0.1-0.3c0-0.2-0.1-0.3-0.3-0.3
	c-0.2,0-0.4,0-0.6,0c-0.2,0-0.3,0.1-0.4,0.3c-0.1,0.8-0.3,1.6-0.5,2.4c-0.1,0.6-0.2,1.1-0.4,1.7c-0.2,0.6-0.1,0.7,0.5,0.7
	C16.9,45.3,17,45.2,17.1,44.9z"/>
<path class="st0" d="M14.2,45.1c0.1-0.3,0.1-0.6,0.2-0.9c0.1-0.7,0.3-1.5,0.4-2.2c0.1-0.4,0.2-0.9,0.3-1.3c0-0.3,0-0.4-0.3-0.4
	c-0.2,0-0.3,0-0.5,0c-0.2,0-0.4,0.1-0.4,0.3c0,0.1,0,0.2-0.1,0.3c-0.2,1.2-0.5,2.5-0.7,3.7c-0.1,0.7-0.1,0.7,0.6,0.7
	C13.8,45.3,14.1,45.4,14.2,45.1z"/>
<path class="st0" d="M94.7,45.3c0.1,0,0.2,0,0.3,0c0.2,0,0.3-0.1,0.3-0.3c0.1-0.3,0.1-0.7,0.2-1c0.2-1,0.4-2.1,0.6-3.1
	c0.1-0.7,0.2-0.7-0.5-0.7c-0.6,0-0.7,0.1-0.8,0.7c-0.1,0.6-0.2,1.2-0.3,1.8c-0.1,0.7-0.3,1.4-0.4,2.2c-0.1,0.4,0,0.4,0.4,0.4
	C94.6,45.3,94.7,45.3,94.7,45.3C94.7,45.3,94.7,45.3,94.7,45.3z"/>
<path class="st0" d="M86.5,42.9c0.1,0,0.3,0,0.4,0s0.3,0,0.5,0c0.3,0,0.4-0.2,0.4-0.6c0-0.3-0.2-0.3-0.4-0.3c-0.5,0-1,0-1.5,0
	c-0.5,0-0.5,0-0.6,0.5c0,0.3,0,0.4,0.3,0.4C85.9,42.9,86.2,42.9,86.5,42.9z"/>
<path class="st0" d="M96.7,38.6c0-0.4-0.3-0.6-0.6-0.6c-0.4,0-0.9,0.4-0.9,0.9c0,0.4,0.2,0.7,0.6,0.7C96.3,39.6,96.7,39.2,96.7,38.6
	z"/>
<path class="st0" d="M15,38c-0.5,0-0.9,0.4-0.9,0.9c0,0.4,0.3,0.6,0.6,0.6c0.5,0,0.9-0.4,0.9-0.9C15.6,38.3,15.3,38,15,38z"/>
<path class="st0" d="M15.6,13.2c-0.1,0-0.2,0-0.3,0c-0.1,0-0.2,0.1-0.3,0.2c-0.1,0.5-0.1,0.9-0.2,1.4c-0.1,0.9-0.2,1.9-0.4,2.9
	c0,0.4,0,0.5,0.4,0.5c2.4,0,4.7,0,7.1,0c0.4,0,0.4,0.1,0.4,0.4c-0.2,1.3-0.7,2.5-1.4,3.5c-1.1,1.4-2.5,2.4-4.2,2.9
	c-1.6,0.5-3.2,0.5-4.9,0.1c-1.1-0.3-2.1-0.8-2.9-1.6c-1.5-1.4-2.2-3.2-2.4-5.2c-0.1-1.2-0.1-2.4,0.1-3.6c0.2-1,0.5-1.9,0.9-2.8
	c0.5-1.1,1.2-2.1,2.1-3c1.6-1.6,3.5-2.7,5.8-3c1.4-0.2,2.7-0.1,4.1,0.2c0.4,0.1,0.8,0.2,1.2,0.4c1,0.3,1.9,1,2.7,1.7
	c0.3,0.3,0.4,0.3,0.7,0c1.3-1.4,2.5-2.7,3.8-4.1c0.2-0.2,0.1-0.3,0-0.5c-1-1.2-2.4-1.9-3.8-2.5c-1.3-0.6-2.7-0.8-4-0.9
	c-1.7-0.2-3.4-0.2-5.1,0.1c-0.7,0.1-1.5,0.2-2.2,0.4C12,0.8,11.4,1,10.7,1.3C10,1.6,9.3,1.9,8.5,2.4c-1,0.6-2,1.3-2.8,2.1
	C5.1,5.1,4.5,5.7,3.9,6.4c-0.8,1-1.5,2-2.1,3.2c-0.3,0.7-0.6,1.4-0.9,2.1c-0.2,0.7-0.4,1.5-0.6,2.2c-0.1,0.7-0.3,1.3-0.3,2
	c0,0.7,0,1.5,0,2.2c0,1.1,0.1,2.1,0.3,3.2c0.3,1.3,0.7,2.6,1.4,3.8c0.8,1.3,1.7,2.5,2.9,3.5c0.9,0.8,1.9,1.4,3,1.8
	c0.6,0.2,1.2,0.4,1.7,0.5c1,0.3,2,0.4,3.1,0.4c1.2,0,2.3,0,3.5-0.2c0.9-0.2,1.8-0.3,2.7-0.6c1.1-0.3,2-0.8,3-1.3
	c1.6-0.9,3-2.1,4.1-3.6c1.3-1.6,2.2-3.3,2.7-5.2c0.4-1.2,0.6-2.4,0.8-3.6c0.1-1,0.3-2,0.4-2.9c0.1-0.5,0-0.5-0.4-0.5
	c-2.3,0-4.6,0-6.9,0C20.1,13.2,17.8,13.2,15.6,13.2z"/>
<path class="st0" d="M90.1,0.1c-0.6,0-1.2,0-1.8,0c-1.3,0-2.5,0-3.7,0c-0.3,0-0.5,0.1-0.5,0.4c0,0.2,0,0.4-0.1,0.6
	c-0.2,1.4-0.4,2.8-0.6,4.2C83.2,6.9,83,8.4,82.8,10c0,0.4-0.1,0.9-0.2,1.3c0,0.1-0.1,0.2-0.2,0.2c0,0-0.2-0.1-0.2-0.1
	c-0.5-0.9-1.2-1.4-2.1-1.8C79,9,77.8,8.9,76.6,8.8c-0.6,0-1.2,0.1-1.8,0.1c-1.3,0.1-2.4,0.5-3.5,1.1c-1.5,0.8-2.8,1.9-3.9,3.3
	c-1.3,1.6-2.1,3.3-2.5,5.3c-0.2,1-0.3,2.1-0.4,3.1c0,0.6,0.1,1.3,0.1,1.9c0.1,1.2,0.4,2.4,1,3.5c0.8,1.6,2,2.8,3.5,3.6
	c1.3,0.7,2.6,0.9,4,1c0.7,0,1.4-0.1,2.1-0.2c1-0.1,1.9-0.4,2.7-0.8c1.2-0.6,2.2-1.3,3-2.3c0-0.1,0.2-0.1,0.3-0.1
	c0,0.1,0.1,0.2,0.1,0.3c0.2,0.8,0.3,1.6,0.5,2.3c0,0.2,0.1,0.3,0.4,0.3c0.6,0,1.1,0,1.7,0c0.6,0,1.2,0,1.7,0c0.3,0,0.4-0.1,0.5-0.4
	c0.1-0.6,0.2-1.1,0.2-1.7c0.2-1.2,0.4-2.5,0.5-3.7c0.2-1.7,0.5-3.4,0.7-5.1c0.2-1.6,0.5-3.3,0.7-5c0.1-1,0.3-2.1,0.4-3.1
	c0.2-1.4,0.4-2.7,0.6-4.1C89.6,6.7,89.8,5.3,90,4c0.1-1.1,0.3-2.3,0.5-3.4C90.5,0.2,90.5,0.1,90.1,0.1z M81.4,22.1
	c-0.6,1.6-1.5,2.9-3,3.7c-1.2,0.7-2.5,0.9-3.8,0.7c-1.1-0.2-1.9-0.8-2.5-1.7c-0.6-0.9-0.9-2-1-3.1c-0.1-1.2,0.1-2.3,0.5-3.4
	c0.6-1.6,1.7-3,3.3-3.8c1.1-0.5,2.2-0.6,3.4-0.4c1.3,0.3,2.3,1.1,2.9,2.3c0.4,0.9,0.6,1.9,0.6,2.7C81.8,20.2,81.7,21.2,81.4,22.1z"
	/>
<path class="st0" d="M105.9,0.1c-3.5,0-7.1,0-10.6,0c-0.8,0-0.8,0-0.9,0.8c-0.2,1.4-0.4,2.9-0.6,4.3c-0.2,1.4-0.4,2.7-0.6,4.1
	c-0.2,1.5-0.4,3-0.6,4.5c-0.2,1.4-0.4,2.8-0.6,4.2c-0.2,1.4-0.4,2.8-0.6,4.2c-0.2,1.7-0.5,3.3-0.7,5c-0.2,1.2-0.3,2.4-0.5,3.7
	c0,0.3,0,0.4,0.3,0.4c1.8,0,3.7,0,5.5,0c0.4,0,0.4-0.1,0.5-0.4c0.1-1,0.3-2.1,0.4-3.1c0.2-1.6,0.5-3.3,0.7-4.9
	c0.2-1.4,0.4-2.8,0.6-4.3c0-0.2,0.1-0.3,0.4-0.3c0.1,0,0.2,0,0.3,0c4.2,0,8.5,0,12.7,0c0.2,0,0.4-0.1,0.4-0.3c0-0.4,0.1-0.8,0.2-1.1
	c0.1-1.1,0.3-2.1,0.4-3.2c0-0.4,0-0.5-0.4-0.5c-4.3,0-8.5,0-12.8,0c-0.4,0-0.4,0-0.4-0.4c0.1-1.1,0.3-2.2,0.5-3.2
	c0.1-1,0.3-2.1,0.5-3.2c0-0.4,0.1-0.5,0.5-0.5c1.1,0,2.2,0,3.3,0c4.1,0,8.1,0,12.2,0c0.2,0,0.3-0.1,0.4-0.3c0.1-0.8,0.2-1.6,0.3-2.4
	c0.1-0.9,0.3-1.7,0.4-2.6c0-0.3,0-0.4-0.3-0.4C113.2,0.1,109.6,0.1,105.9,0.1z"/>
<path class="st0" d="M53.8,16.5c-0.2-1.2-0.5-2.4-1.2-3.5c-0.6-1.1-1.4-2-2.4-2.7c-0.8-0.6-1.6-1.1-2.6-1.4
	c-0.9-0.3-1.8-0.6-2.7-0.6c-1.1,0-2.2,0-3.2,0.1c-1.6,0.2-3.2,0.8-4.6,1.6c-1,0.6-1.8,1.2-2.6,2c-0.8,0.7-1.4,1.5-2,2.4
	c-0.8,1.1-1.3,2.4-1.6,3.7c-0.2,1.1-0.4,2.1-0.3,3.2c0,1,0,1.9,0.3,2.8c0.2,0.8,0.5,1.6,0.9,2.3c0.5,1,1.2,1.8,2.1,2.5
	c0.6,0.5,1.3,0.9,2,1.3c0.8,0.4,1.7,0.7,2.5,0.8c1.2,0.2,2.4,0.2,3.5,0.1c1.1,0,2.2-0.3,3.3-0.7c0.8-0.3,1.7-0.7,2.5-1.1
	c1.2-0.7,2.2-1.6,3.2-2.6c0.9-1,1.6-2.1,2.1-3.3c0.4-0.9,0.7-1.9,0.8-2.8C54,19.2,54,17.9,53.8,16.5z M47.6,20
	c-0.3,2.2-1.2,3.9-3,5.2c-0.7,0.5-1.5,0.8-2.4,0.9c-0.3,0-0.5,0.1-0.7,0.1c-1.9,0-3.2-0.8-4-2.4c-0.3-0.8-0.5-1.5-0.6-2.4
	c-0.1-0.9,0-1.7,0.2-2.6c0.4-2,1.4-3.7,3.3-4.8c1.3-0.8,2.7-1,4.2-0.5c0.8,0.3,1.5,0.8,2,1.5c0.7,0.9,1,1.9,1.1,3
	C47.7,18.7,47.7,19.3,47.6,20z"/>
<path class="st0" d="M143.3,31.3c0.9,0,1.8,0,2.8,0c0.3,0,0.4-0.1,0.5-0.4c0-0.4,0.1-0.8,0.2-1.2c0.2-1.3,0.4-2.5,0.5-3.8
	c0.2-1.1,0.3-2.3,0.5-3.4c0.1-1,0.2-1.9,0.4-2.9c0.2-1.3,0.4-2.6,0.2-4c-0.1-1-0.3-1.9-0.7-2.8c-0.6-1.4-1.6-2.4-3-3.1
	c-1.2-0.6-2.4-0.8-3.7-0.8c-0.8,0-1.6,0.1-2.5,0.2c-1.2,0.1-2.4,0.6-3.4,1.4c-0.8,0.5-1.4,1.2-2.1,1.9c-0.1,0.1-0.2,0.1-0.4,0.2
	c0-0.1-0.1-0.2-0.2-0.4c-0.1-0.8-0.2-1.5-0.3-2.2c0-0.3-0.1-0.4-0.4-0.4c-1.1,0-2.2,0-3.4,0c-0.2,0-0.3,0.1-0.3,0.3
	c0,0.2,0,0.4-0.1,0.7c-0.2,1.4-0.4,2.8-0.6,4.2c-0.2,1.4-0.4,2.8-0.6,4.2c-0.2,1.4-0.4,2.9-0.6,4.3c-0.1,0.9-0.2,1.8-0.4,2.7
	c-0.1,0.7-0.2,1.3-0.3,1.9c-0.1,1.1-0.3,2.2-0.5,3.3c0,0.2,0.1,0.3,0.3,0.3c0.2,0,0.4,0,0.6,0c1.6,0,3.3,0,4.9,0
	c0.4,0,0.5-0.1,0.6-0.4c0.2-1.1,0.3-2.3,0.5-3.4c0.2-1.4,0.4-2.8,0.6-4.2c0.2-1.5,0.4-3,0.7-4.5c0.1-0.8,0.4-1.5,0.8-2.1
	c1.2-1.7,2.7-2.5,4.8-2.3c0.4,0,0.9,0.2,1.2,0.3c1.3,0.6,1.8,1.7,2,3c0.1,1.1-0.2,2.1-0.3,3.1c-0.2,1.4-0.4,2.8-0.6,4.2
	c-0.1,0.8-0.2,1.7-0.3,2.6c-0.1,1.1-0.3,2.2-0.5,3.2c0,0.4,0,0.4,0.4,0.4C141.5,31.3,142.4,31.3,143.3,31.3z"/>
<path class="st0" d="M57.7,31.3c0.8,0,1.6,0,2.4,0c1,0,0.8,0,1-0.8c0.3-1.7,0.5-3.4,0.7-5.1c0.2-1.7,0.5-3.4,0.7-5.1
	c0.2-1.6,0.5-3.3,0.7-5c0.1-1.1,0.3-2.1,0.4-3.2c0.2-1.3,0.4-2.7,0.6-4c0.2-1.4,0.4-2.9,0.6-4.3c0.1-1.1,0.3-2.2,0.5-3.3
	c0-0.3,0-0.4-0.3-0.4c-1.9,0-3.8,0-5.6,0c-0.2,0-0.4,0.1-0.4,0.3c-0.1,0.5-0.1,1-0.2,1.5c-0.2,1.6-0.5,3.3-0.7,4.9
	c-0.2,1.3-0.4,2.5-0.5,3.8c-0.2,1.7-0.5,3.4-0.7,5.1c-0.2,1.7-0.5,3.5-0.7,5.2c-0.2,1.6-0.5,3.2-0.7,4.8c-0.2,1.7-0.5,3.4-0.7,5.1
	c0,0.4,0,0.4,0.4,0.4C55.9,31.3,56.8,31.3,57.7,31.3z"/>
<path class="st0" d="M121.5,31.3c0.3,0,0.4-0.1,0.5-0.4c0.1-0.5,0.1-1,0.2-1.5c0.2-1.6,0.5-3.2,0.7-4.8c0.2-1.4,0.4-2.8,0.6-4.2
	c0.2-1.7,0.5-3.3,0.7-5c0.2-1.8,0.5-3.6,0.8-5.4c0.1-0.5,0-0.6-0.5-0.6c-1.3,0-2.6,0-3.9,0c-0.4,0-0.9,0-1.3,0
	c-0.2,0-0.4,0.1-0.4,0.3c-0.2,1.6-0.5,3.2-0.7,4.8c-0.2,1.6-0.4,3.3-0.7,4.9c-0.1,1.1-0.3,2.2-0.4,3.3c-0.1,1-0.3,1.9-0.4,2.9
	c-0.1,0.9-0.3,1.8-0.4,2.8c-0.1,0.8-0.2,1.7-0.3,2.5c0,0.3,0,0.4,0.4,0.4c0.9,0,1.8,0,2.7,0C119.7,31.3,120.6,31.3,121.5,31.3z"/>
<path class="st0" d="M170.5,31.2c1,0,2,0,3,0c0.3,0,0.4-0.1,0.2-0.4c-0.2-0.4-0.4-0.8-0.6-1.3c-0.5-1.1-1-2.3-1.5-3.4
	c-0.4-0.8-0.8-1.6-1.2-2.4c-0.4-0.9-0.9-1.9-1.3-2.8c-0.5-1-0.9-2-1.4-2.9c-0.1-0.2-0.1-0.4,0.1-0.7c0.3-0.3,0.5-0.7,0.8-1
	c1.7-2.2,3.4-4.4,5.1-6.5c1.4-1.8,2.9-3.7,4.3-5.6c1-1.2,1.9-2.5,2.9-3.7c0-0.1,0.1-0.2,0.1-0.2c0-0.1-0.2-0.1-0.2-0.1
	c-2,0-4,0-5.9,0c-0.1,0-0.3,0.1-0.4,0.2c-0.7,0.9-1.4,1.9-2.1,2.8c-1.4,1.9-2.8,3.8-4.2,5.6c-1.4,1.9-2.8,3.7-4,5.7
	c0,0.1-0.1,0.1-0.2,0.2c0-0.1-0.1-0.1-0.1-0.2c-0.2-0.7-0.4-1.4-0.6-2c-0.2-0.5-0.4-1-0.5-1.5c-0.2-0.6-0.4-1.1-0.6-1.6
	c-0.3-0.8-0.6-1.6-0.9-2.4c-0.1-0.2-0.2-0.3-0.4-0.3c-2,0-4,0-5.9,0c-0.2,0-0.3,0.1-0.2,0.3c0.1,0.2,0.2,0.4,0.3,0.7
	c0.3,0.7,0.6,1.3,0.9,1.9c0.4,0.8,0.7,1.6,1.1,2.5c0.4,0.8,0.8,1.7,1.1,2.5c0.4,0.8,0.8,1.7,1.2,2.6c0.1,0.3,0.3,0.6,0,0.9
	c-0.4,0.5-0.7,1-1.1,1.5c-1,1.5-2.1,2.9-3.1,4.4c-0.8,1.1-1.5,2.2-2.3,3.4c-1.1,1.5-2.1,3.1-3.2,4.6c-0.9,1.3-1.8,2.6-2.7,3.9
	c-0.9,1.3-1.8,2.6-2.7,3.9c-1.3,1.9-2.6,3.8-3.9,5.6c0,0.1,0,0.2-0.1,0.3c0.1,0,0.2,0.1,0.3,0.1c1.8,0,3.6,0,5.4,0
	c0.6,0,0.9-0.1,1.2-0.6c0.9-1.5,1.9-2.9,2.9-4.4c0.9-1.4,1.8-2.7,2.7-4.1c1.2-1.8,2.4-3.5,3.5-5.3c1.2-1.8,2.4-3.6,3.6-5.4
	c1-1.6,2-3.1,3-4.7c0-0.1,0.1-0.2,0.2-0.2c0.1,0,0.2,0.1,0.2,0.2c0.1,0.2,0.1,0.4,0.2,0.6c0.3,0.9,0.7,1.8,1.1,2.7
	c0.3,0.9,0.7,1.8,1.1,2.7c0.5,1.2,1,2.4,1.4,3.6c0.2,0.5,0.2,0.5,0.8,0.5C168.7,31.2,169.6,31.2,170.5,31.2z M122.8,0.1
	c-2.1,0-3.5,1.4-3.5,3.4c0,2,1.5,3.4,3.7,3.3c1.7,0,3.5-1.5,3.3-3.3C126.4,1.5,124.7,0,122.8,0.1z"/>
</svg>
