<?xml version="1.0" encoding="utf-8"?>
<!-- Generator: Adobe Illustrator 22.1.0, SVG Export Plug-In . SVG Version: 6.00 Build 0)  -->
<svg version="1.1" id="Camada_1" xmlns="http://www.w3.org/2000/svg" xmlns:xlink="http://www.w3.org/1999/xlink" x="0px" y="0px"
	 viewBox="0 0 736.7 194.4" style="enable-background:new 0 0 736.7 194.4;" xml:space="preserve">
<style type="text/css">
	.st0{fill:#FFFFFF;}
	.st1{fill:url(#SVGID_1_);}
</style>
<title>GoldFinX_brand</title>
<path class="st0" d="M302,169.6c-2.4-4.5-8-5.5-12.3-3c-0.6,0.3-1.1,0.6-1.6-0.2c-0.6-1.2-4.5-1.4-5.2-0.2c-0.2,0.4-0.3,0.8-0.4,1.2
	c-0.2,0.9-0.3,1.9-0.5,2.8c-0.5,2.3-1,4.7-1.5,7c-0.6,3-1.2,5.9-1.8,8.9c-0.4,2.1-0.9,4.3-1.3,6.4c-0.2,1.2,0.1,1.6,1.4,1.6
	c0.6,0,1.3,0,1.9,0c0.9,0.2,1.8-0.3,2-1.2c0-0.1,0-0.2,0-0.4c0.5-2.6,1-5.2,1.5-7.7c0.1-0.3,0.3-0.7,0.5-1c0.3,0.1,0.6,0.2,0.8,0.4
	c1.5,1.8,3.9,2.8,6.3,2.6c3.4,0,6.5-1.5,8.6-4.2c1.6-2.1,2.5-4.6,2.7-7.1C303.4,173.4,303,171.3,302,169.6z M293.2,181.6
	c-3.2,1.2-6.4-0.2-6.9-3.9c-0.6-4.7,3.2-8.6,7.5-7.8c2.3,0.4,3.8,2.3,3.8,5.3C297.9,178.1,296,180.8,293.2,181.6z"/>
<path class="st0" d="M177.3,157.5c-0.6,0-1.2,0-1.8,0c-1.2-0.2-1.7,0.4-2,1.5c-0.6,2.8-1.2,5.6-1.8,8.4c-0.1,0.3-0.3,0.6-0.5,0.9
	c-0.3-0.2-0.6-0.4-0.8-0.6c-0.6-0.6-1.2-1.1-1.9-1.6c-3.6-1.8-8-1.2-11,1.5c-4,3.3-5.2,7.7-4,12.8c0.9,3.8,4.3,6.4,8.2,6.3
	c1.8-0.1,3.5-0.5,5.1-1.4c0.4-0.2,0.8-0.2,1.2-0.1c0.5,1.4,1.7,1.2,2.8,1.2c0.5,0,1,0,1.4,0c0.7,0,1.3-0.5,1.4-1.2
	c0.2-1.2,0.5-2.4,0.7-3.6c1-5.1,2-10.2,3.1-15.4c0.5-2.4,0.9-4.7,1.3-7.1C179,157.9,178.6,157.5,177.3,157.5z M164.9,182.2
	c-2.7,0.7-5.4-0.8-6.2-3.5c-0.1-0.5-0.2-1.1-0.2-1.6c0-3.2,2.1-6.1,5.2-6.9c3-0.8,6.4,1,6.4,5.3C170.1,178.6,168,181.4,164.9,182.2z
	"/>
<path class="st0" d="M47.5,165.5c-1.9,0-2.1,0.1-2.5,2c-0.1,0.3-0.3,0.6-0.5,0.9l-0.9-0.6c-0.8-0.7-1.7-1.3-2.7-1.8
	c-4.4-1.5-8.1-0.4-11.3,2.9c-3.3,3.6-4.3,8.8-2.3,13.3c0.8,1.8,2.3,3.3,4.2,4c2.8,1.1,5.9,0.8,8.5-0.7c0.4-0.2,1.3-0.2,1.3,0
	c0.5,1.3,1.6,1.1,3,1.1h0.4c1.7,0,2.1-0.4,2.3-2c0.1-0.7,0.2-1.3,0.3-2c0.9-4.6,1.9-9.3,2.8-13.9C50.7,165.5,50.6,165.5,47.5,165.5z
	 M37.1,182.4c-2.5,0.2-4.8-1.5-5.2-4c-0.6-3.1,1-6.2,3.7-7.7c3.4-2,8,0.5,7.5,4.7C43.6,178.5,40.8,182,37.1,182.4z"/>
<path class="st0" d="M441.3,165.5c-0.1,0-0.2,0-0.4,0c-1.2-0.2-1.8,0.3-2,1.6s-0.7,1.4-1.6,0.6c-2.9-2.7-7.1-3.2-10.5-1.3
	c-4.3,2.3-6.4,6-6.7,10.8c-0.1,2.1,0.5,4.2,1.6,6.1c2.7,4.1,8.4,4.7,12.3,2.1c0.6-0.4,1.1-0.4,1.3,0.3c0.2,0.6,0.8,1,1.5,0.9
	c0,0,0,0,0,0c0.6,0,1.1,0,1.7,0c1.6,0,2.1-0.4,2.4-2c0.2-1.1,0.3-2.2,0.5-3.3c0.9-4.2,1.8-8.4,2.6-12.6
	C444.6,165.5,444.5,165.5,441.3,165.5z M437.1,175.4c0.1,3.6-2.6,6.7-6.2,7c-2.2,0.3-4.3-1-4.9-3.1c-1.2-3.7,0.8-7.8,4.5-9
	c0.1,0,0.2-0.1,0.4-0.1c2.7-0.7,5.4,0.9,6.1,3.6C437.1,174.3,437.2,174.8,437.1,175.4z"/>
<path class="st0" d="M149,165.5c-0.4,0-0.9,0-1.3,0c-1.3-0.2-2,0.4-2.3,1.6s-0.7,1.2-1.6,0.4c-0.8-0.7-1.7-1.2-2.7-1.7
	c-2.1-0.8-4.4-0.8-6.5,0c-2.4,0.7-4.5,2.3-5.9,4.4c-1.8,2.8-2.4,6.2-1.8,9.4c0.3,2.2,1.4,4.1,3.2,5.4c3.1,2.2,7.2,2.2,10.4,0.1
	c0.4-0.2,0.8-0.2,1.2,0c0.4,1.5,1.6,1.2,2.6,1.2c2.6,0,2.7,0,3.2-2.6c0.7-3.3,1.3-6.6,2-10c0.4-2.1,0.9-4.2,1.3-6.3
	C151.1,165.8,150.8,165.4,149,165.5z M143.4,177.4c-1,2.9-3,4.8-6.1,5c-3.5,0.2-5.8-2.7-5.3-6.2c0.3-2.7,2.2-4.9,4.8-5.8
	c0.6-0.2,1.2-0.3,1.9-0.4C142.3,170,144.7,173.7,143.4,177.4z"/>
<path class="st0" d="M236.3,183.5c1.6-1.3,1.6-1.4,0.3-3c-0.3-0.3-0.6-0.6-0.9-1c-0.6-0.8-1.2-0.6-2-0.2c-1.4,0.9-2.9,1.6-4.4,2.2
	c-4,1.1-8.1-1-9.6-4.9c-1.7-5.1,1.1-10.7,6.2-12.4c1-0.3,2-0.5,3-0.5c2.4-0.1,4.8,0.9,6.4,2.6c0.6,0.6,1.1,0.6,1.7,0s1.3-1.5,2-2.2
	c0.4-0.3,0.5-1,0.2-1.4c0-0.1-0.1-0.1-0.2-0.2c-1.5-1.8-3.6-3-5.9-3.4c-6.9-1.3-12.8,0.5-17,6.4c-2.4,3.3-3.2,7.5-2.2,11.5
	c1.4,6.1,6.2,9.8,12.6,9.8C230,186.9,233.5,185.7,236.3,183.5z"/>
<path class="st0" d="M194.5,165.6c-2.9-0.6-5.8-0.3-8.5,1.1c-2.7,1.4-4.8,3.8-5.7,6.8c-1.5,4.3-0.2,9.9,4.2,12.1
	c0.8,0.4,1.7,0.7,2.6,0.9c3,0.8,6.3,0.5,9.1-0.9c2.6-1.4,2.5-1.6,0.7-3.9c-0.5-0.7-1.4-0.9-2.1-0.4c0,0,0,0,0,0
	c-1.1,0.5-2.2,0.9-3.3,1.2c-2.3,0.5-4.7-0.6-5.9-2.7c-0.5-1.3-0.3-1.7,1.1-1.7c2.1,0,4.2,0,6.3,0h6.5c0.7,0,1.3-0.1,1.4-0.9
	C201.9,172.3,200.2,166.8,194.5,165.6z M194.9,174.1c-1.4,0-2.7,0-4.1,0l0,0c-1.3,0-2.6,0-3.9,0c-0.4,0.1-0.8-0.1-0.9-0.6
	c-0.1-0.3,0-0.6,0.3-0.8c1.5-2.4,4.4-3.6,7.1-2.9c1.5,0.4,2.5,1.6,2.8,3.1C196.2,173.9,195.6,174.1,194.9,174.1z"/>
<path class="st0" d="M382,164c1.9,0,2-0.1,2.2-2c0-0.4,0.1-0.8,0.2-1.2c0.4-1.7,0.2-1.9-1.5-1.9h-15.2c-1.8,0-2.1,0.3-2.4,2
	c-0.4,2.5-0.9,5-1.4,7.5c-1.1,5.5-2.3,11-3.4,16.5c-0.2,0.9,0.1,1.5,1.2,1.5c0.8,0,1.6,0,2.4,0c1.5,0,1.9-0.4,2.1-1.9
	c0.4-2.3,0.9-4.7,1.3-7.1c0.3-1.5,0.6-1.8,2.2-1.8h7.4c3.2,0,2.8,0.5,3.7-2.9c0.4-1.6,0.2-1.9-1.4-1.9h-8.7c-1.6,0-1.8-0.2-1.5-1.7
	c0.3-1.4,0.6-2.7,0.8-4.1c0-0.7,0.6-1.2,1.3-1.2c0.1,0,0.1,0,0.2,0c1.8,0,3.6,0,5.4,0L382,164z"/>
<path class="st0" d="M10.5,159c-0.7,0-1.3,0.1-1.4,0.9c-0.6,3.2-1.3,6.3-1.9,9.5l-1.8,8.8c-0.4,2.2-0.9,4.4-1.3,6.7
	c-0.2,1.2,0.2,1.6,1.4,1.6c0.6,0,1.3-0.1,1.9,0c1,0.2,1.9-0.4,2.1-1.4c0-0.1,0-0.2,0-0.3c0.5-2.5,1-4.9,1.5-7.4
	c0.3-1.4,0.4-1.6,1.9-1.6c2.8,0,5.6,0,8.4,0c2.4,0,2.5-0.1,2.8-2.4s0.3-2.4-2.2-2.4c-2.7,0-5.4,0-8.1,0c-1.2,0-1.5-0.4-1.2-1.6
	s0.5-2.5,0.7-3.8c0-0.9,0.8-1.7,1.8-1.7c0.1,0,0.2,0,0.2,0c2.9,0.1,5.8,0,8.6,0c3.5,0,3.5,0,4-3.5c0.2-1.2,0-1.5-1.3-1.5
	c-2.7,0-5.4,0-8.1,0H10.5z"/>
<path class="st0" d="M501.2,178c2.1,0,4.2,0,6.3,0h4.8c3.4,0,3.4,0,3.4-3.5c0.1-4.3-2.4-8-6.8-8.9c-3.4-0.8-6.9-0.1-9.8,1.9
	c-3.7,2.6-5.1,6.4-4.7,10.9c0.1,3.3,2.2,6.3,5.4,7.5c3.3,1.4,7,1.4,10.3,0.1c3-1.1,3.3-2.2,1.2-4.4l-0.1-0.1
	c-0.4-0.5-1.1-0.6-1.6-0.3c0,0-0.1,0.1-0.1,0.1c-1.4,1-3.2,1.4-4.9,1.3c-1.9,0-3.6-1.1-4.5-2.8C499.6,178.5,499.9,178,501.2,178z
	 M501,172.6c1.7-2.4,4.8-3.5,7.6-2.6c1.2,0.5,2,1.6,2.3,2.9c0.2,0.8-0.2,1.2-1,1.2h-4.1c-1.4,0-2.7,0-4.1,0
	C500.6,174.1,500.4,173.6,501,172.6z"/>
<path class="st0" d="M336.5,165.6c-3-0.7-6.2-0.3-8.9,1.1c-5.6,2.9-7.8,9.8-4.8,15.5c0.1,0.1,0.1,0.3,0.2,0.4c1.2,2,3.2,3.3,5.4,3.8
	c3,0.9,6.2,0.6,9-0.8c4.2-2.1,6.5-5.6,6.3-10.5C343.9,170.6,340.9,166.5,336.5,165.6z M334.3,181.8c-3.9,1.3-7.4-0.5-7.4-5
	c-0.2-3.5,2.5-6.6,6-6.8c0.5,0,1,0,1.5,0.1c1.6,0.4,3,1.5,3.5,3.1C339.1,176.2,337.4,180.8,334.3,181.8z"/>
<path class="st0" d="M260.5,165.5c-2,0-2.2,0.3-1.9,2.3c0.2,1.2,0.6,2.4,0.8,3.6c1,4.4,1.9,8.7,2.8,13.1c0.2,0.7,0.2,1.3,0,2
	c-0.8,2.2-3.2,3.3-5.3,2.5c-1.3-0.4-3.9,2.1-3.6,3.4c0.1,0.3,0.4,0.6,0.7,0.8c2.9,2,6.9,1.7,9.5-0.7c1.9-2.2,3.6-4.6,5-7.1
	c2.3-3.7,4.5-7.5,6.7-11.3c1.3-2.3,2.7-4.5,4-6.8c0.3-0.6,0.6-1.4-0.2-1.6c-1.3-0.3-2.6-0.3-3.9,0c-0.6,0.1-1.2,1.1-1.6,1.8
	c-2.1,3.7-4.1,7.4-6.2,11.2c-0.1,0.3-0.6,0.6-0.8,0.6c-0.3-0.2-0.6-0.5-0.7-0.8c-0.2-0.7-0.3-1.3-0.4-2c-0.5-2.8-0.9-5.7-1.5-8.5
	c-0.4-2.3-0.6-2.4-3-2.4L260.5,165.5z"/>
<path class="st0" d="M397.8,167.7c-0.5,2.1-0.9,4.3-1.4,6.4c-0.7,3.5-1.4,7-2.1,10.5c-0.2,1.3,0.2,1.8,1.5,1.8h1.6
	c1.7,0,2.1-0.3,2.5-1.9c0.5-2.5,0.9-5,1.5-7.5c0.6-2.7,1.4-5.3,4.2-6.5c1.6-0.9,3.6-0.7,4.9,0.6c1.1,1,1.5,2.5,1,3.9
	c-0.4,1.6-0.7,3.3-1,4.9s-0.6,3.1-0.9,4.7s0,1.9,1.5,1.9h1.4c1.8,0,2.2-0.3,2.5-2c0.3-1.4,0.6-2.9,0.9-4.3c0.5-3,1.1-5.9,1.3-9
	c0.2-2.2-1.7-4.5-3.8-5.3c-2.9-1.2-6.2-0.9-8.8,0.9c-0.3,0.1-0.7,0.1-1,0c-0.5-1.6-1.7-1.2-2.9-1.2
	C398.3,165.5,398.3,165.5,397.8,167.7z"/>
<path class="st0" d="M465.6,186.5c0.7,0.1,1.3-0.3,1.5-0.9c0-0.1,0-0.2,0-0.2c0.8-3.9,1.6-7.9,2.3-11.8c0.6-2.4-0.2-4.9-2-6.5
	c-3-2.2-6.9-2.4-10.1-0.5c-0.5,0.4-1,0.7-1.5-0.1c-0.8-1.1-4.3-1.4-5.2-0.4c-0.3,0.4-0.4,0.8-0.5,1.3c-0.2,0.8-0.2,1.7-0.4,2.5
	c-1,5.1-2,10.1-3,15.2c-0.1,0.3,0,0.7,0.2,1c0.5,0.8,4.4,0.6,4.9-0.2c0.1-0.2,0.2-0.4,0.2-0.6c0.7-3.1,1.4-6.3,1.9-9.5
	c0.3-1.7,1.1-3.2,2.3-4.3c1.7-1.7,4.3-1.9,6.2-0.6c1.9,1.5,1.5,3.4,1.1,5.4c-0.6,2.5-1.1,5.1-1.5,7.6s-0.4,2.6,2.3,2.6
	C464.8,186.5,465.2,186.5,465.6,186.5z"/>
<path class="st0" d="M94,159c-2,0-2,0-2.5,1.9c-0.1,0.5-0.3,0.9-0.4,1.4c-0.4,1.3-0.1,1.7,1.2,1.7c1.8,0,3.5,0,5.3,0
	c1.4,0,1.6,0.3,1.4,1.6c-0.2,1.1-0.5,2.3-0.7,3.4c-0.8,3.7-1.5,7.4-2.3,11.1c-0.3,1.5-0.6,3-0.9,4.6c-0.3,1.3,0.1,1.8,1.4,1.8h1.9
	c1.6,0,2-0.4,2.3-1.9c1.3-6.5,2.6-12.9,3.9-19.4c0-0.7,0.6-1.2,1.3-1.1c0,0,0.1,0,0.1,0c1.3,0,2.7,0,4.1,0c3.4,0,3.4,0,3.8-3.4
	c0.2-1.3,0-1.6-1.4-1.6c-3.2,0-6.5,0-9.7,0L94,159z"/>
<path class="st0" d="M490.1,184.1c1.8-1.5,1.8-1.5,0.1-3.1l-0.3-0.3c-0.8-0.9-1.4-1-2.4-0.1c-1.8,1.6-5.2,2-6.9,1.1
	c-1.8-1-2.9-2.9-2.7-5c0.1-2.4,0.9-4.5,3.2-5.8c2.6-1.5,5.1-1,7.4,0.7c0.5,0.5,1.3,0.6,1.8,0.1c0.1-0.1,0.1-0.1,0.2-0.2
	c0.4-0.4,0.9-0.8,1.4-1.2c1-0.9,1-1.4,0-2.3c-1.3-1.2-2.9-2.1-4.7-2.4c-2.8-0.7-5.8-0.3-8.4,0.9c-3.7,1.7-5.6,4.9-6.1,8.9
	c-0.4,2.2-0.1,4.5,0.9,6.5c1.8,3.5,4.9,4.8,9.2,4.9C485,187,488.7,185.4,490.1,184.1z"/>
<path class="st0" d="M321,168.2c0.2-1.2-0.1-1.7-1.3-1.7c-0.9,0-1.8,0-2.8,0c-1.2,0-1.6-0.4-1.4-1.6c0.2-0.8,0.5-1.6,0.7-2.4
	c0.3-1.2,0-1.6-1.2-1.7c-0.8,0-1.5,0-2.3,0c-0.9-0.2-1.8,0.5-1.9,1.4c0,0,0,0.1,0,0.1c-0.2,0.9-0.3,1.9-0.4,2.8
	c0,0.8-0.7,1.4-1.4,1.3c-1.3-0.1-2.3,0.9-2.4,2.2c0,0.1,0,0.3,0,0.4c0,0.7,0.3,1,1,1.1c1.6,0.2,1.7,0.4,1.4,2.1
	c-0.6,2.6-1.2,5.3-1.6,8c-0.2,1.6-0.4,3.3,0.7,4.7c2.1,2.7,7,2.1,9.3,0.7c0.3-0.3,0.5-0.8,0.5-1.2c-0.1-0.8-0.2-1.6-0.4-2.3
	c-0.2-0.7-0.6-0.9-1.3-0.6c-0.4,0.2-0.7,0.3-1.1,0.4c-2.1,0.4-2.8-0.3-2.4-2.3c0.5-2.3,1-4.6,1.5-6.9c0.6-2.5,0.6-2.5,3.4-2.5
	C320.5,170.2,320.6,170.1,321,168.2z"/>
<path class="st0" d="M116.7,183.7c0.4-2.3,0.7-4.6,1.3-6.8c0.5-3,2.7-5.3,5.6-6.1c3.1-0.9,3.1-0.8,3.4-4.1c0.1-1.4-0.3-1.6-1.6-1.3
	c-1.6,0.3-3.2,1.1-4.5,2.1c-0.4,0.4-0.8,0.3-0.9-0.4c-0.3-1.7-0.3-1.7-2.1-1.7c-0.4,0-0.8,0-1.2,0c-1.3-0.2-1.9,0.4-2.1,1.7
	c-0.6,3.1-1.2,6.3-1.9,9.4c-0.5,2.3-0.8,4.7-1.4,7c-0.7,2.7-0.6,2.9,2.1,2.9C115.9,186.5,116.2,186.2,116.7,183.7z"/>
<path class="st0" d="M249.9,166.7c0.1-0.5-0.3-1.1-0.8-1.2c-0.1,0-0.1,0-0.2,0c-1-0.1-2.1-0.1-3.1,0.1c-0.5,0.2-1,0.6-1.2,1.1
	c-0.4,1.4-0.6,3-0.9,4.4c-0.9,4.6-1.8,9.1-2.8,13.7c-0.2,1.1,0.1,1.6,1.2,1.7c0.8,0.1,1.5,0,2.3,0c1,0.1,1.9-0.7,2-1.8c0,0,0,0,0,0
	c0.4-2.4,0.9-4.7,1.3-7c0.8-4.2,3.5-6.9,7.6-7.2c0.5-0.1,0.9-0.5,1.1-1c0.2-0.9,0.3-1.7,0.4-2.6c0.2-1.3-0.4-1.9-1.6-1.5
	c-1.3,0.5-2.5,1-3.7,1.6c-0.5,0.2-0.9,0.6-1.7,1C249.9,167.3,249.9,167,249.9,166.7z"/>
<path class="st0" d="M69.6,184.7c0.5-2.3,1-4.6,1.3-6.9c0.4-3.1,3-6.4,6-7c3.1-0.7,3.1-0.8,3.2-4.1c0-0.2,0.1-0.4,0-0.5
	c-0.4-0.3-0.8-0.9-1.2-0.8c-1.7,0.2-3.3,0.9-4.7,2c-0.3,0.2-0.6,0.4-0.9,0.5c-0.1-0.3-0.2-0.7-0.3-1.1c0.1-0.9-0.3-1.3-1.2-1.3
	s-1.7,0-2.5,0c-0.7-0.1-1.4,0.4-1.5,1.1c0,0.1,0,0.1,0,0.2c-0.6,3.3-1.3,6.6-2,10c-0.5,2.3-0.9,4.6-1.5,6.9
	c-0.7,2.6-0.5,2.9,2.1,2.9C68.8,186.5,69.3,186.2,69.6,184.7z"/>
<path class="st0" d="M58,185.5c0.3-1.3,0.6-2.6,0.9-3.8c0.6-3,1.2-6,1.8-9c0.4-1.8,0.8-3.7,1.1-5.5c0.2-1.3-0.2-1.7-1.4-1.7
	c-0.7,0-1.4,0-2.2,0c-0.8-0.1-1.6,0.5-1.8,1.3c-0.1,0.5-0.3,0.9-0.3,1.4c-1,5.1-2,10.2-3,15.4c-0.5,2.8-0.4,3,2.5,3
	C56.4,186.3,57.6,187,58,185.5z"/>
<path class="st0" d="M385.5,186.5h1.3c0.7,0.1,1.3-0.5,1.4-1.2c0,0,0,0,0,0c0.3-1.4,0.6-2.9,0.9-4.3c0.9-4.2,1.6-8.4,2.5-12.6
	c0.6-2.8,0.7-2.8-2.2-2.8c-2.5,0-2.8,0.3-3.2,2.8s-0.9,5-1.3,7.5c-0.6,3-1.2,5.9-1.8,8.9c-0.3,1.5,0,1.8,1.5,1.8L385.5,186.5
	L385.5,186.5z"/>
<path class="st0" d="M352.1,176.5h1.8c0.6,0,1.3,0,1.9,0c1.2-0.1,1.7-0.9,1.6-2.6c0-1.1-0.8-1.1-1.6-1.1h-6.2c-2,0-2.2,0.2-2.4,2.1
	c-0.1,1.2,0.2,1.6,1.4,1.6S351,176.5,352.1,176.5L352.1,176.5z"/>
<path class="st0" d="M393.8,159.1c0-1.4-1.1-2.5-2.4-2.6c0,0-0.1,0-0.1,0c-1.9,0.1-3.4,1.6-3.5,3.6c-0.2,1.3,0.8,2.5,2.1,2.7
	c0.1,0,0.3,0,0.4,0C392.2,162.8,393.8,161.1,393.8,159.1C393.8,159.1,393.8,159.1,393.8,159.1z"/>
<path class="st0" d="M61,156.6c-2,0.1-3.5,1.7-3.5,3.6c0,1.4,1.1,2.6,2.5,2.6c0,0,0,0,0,0c2-0.1,3.5-1.7,3.5-3.6
	c0.1-1.4-1-2.6-2.4-2.6C61.1,156.6,61,156.6,61,156.6z"/>
<path class="st0" d="M63.4,54.2c-0.4-0.1-0.9-0.1-1.3,0c-0.4,0.2-1,0.6-1.1,1c-0.4,1.9-0.6,3.8-0.9,5.7c-0.5,3.9-1,7.8-1.6,11.7
	c-0.2,1.6,0.1,2,1.8,2h28.9c1.5,0,1.8,0.4,1.6,1.8C90,81.7,88,86.6,84.9,91c-4.1,5.7-10.1,9.9-16.9,11.8c-6.5,1.9-13.3,2-19.9,0.3
	c-4.5-1.1-8.6-3.4-11.9-6.6c-6-5.8-9.1-13.1-9.9-21.3c-0.5-5-0.3-10.1,0.6-15c0.7-3.9,1.9-7.7,3.5-11.4c2.1-4.5,4.9-8.7,8.4-12.3
	c6.2-6.7,14.5-11,23.5-12.2c5.6-0.8,11.3-0.5,16.8,0.8c1.7,0.4,3.3,0.9,4.9,1.4c4.1,1.5,7.9,3.9,11.1,6.8c1.4,1.2,1.5,1.2,2.8-0.1
	c5.2-5.6,10.4-11.2,15.6-16.9c0.7-0.7,0.4-1.2-0.1-1.9c-4.1-5-9.8-7.8-15.5-10.2C92.5,2.3,87,1,81.3,0.5c-6.8-0.8-13.7-0.7-20.5,0.3
	c-3,0.5-6.1,1-9,1.8c-2.7,0.7-5.3,1.6-7.9,2.7c-3.1,1.3-6.1,2.8-9,4.4c-4.2,2.4-8,5.3-11.4,8.6c-2.6,2.5-5.1,5.2-7.4,8
	c-3.4,4-6.2,8.4-8.5,13.1c-1.3,2.8-2.6,5.6-3.6,8.5c-1,3-1.9,6.1-2.5,9.2c-0.7,2.7-1.1,5.4-1.4,8.1c-0.2,3,0,6-0.1,9
	c-0.2,4.4,0.3,8.7,1.3,13c1.1,5.4,3,10.6,5.6,15.4c3,5.5,7,10.3,11.7,14.4c3.7,3.1,7.9,5.5,12.5,7.2c2.3,0.9,4.7,1.5,7.1,2.1
	c4.1,1.1,8.3,1.7,12.5,1.7c4.7,0.1,9.5,0.2,14.2-0.8c3.7-0.8,7.5-1.4,11.1-2.4c4.3-1.3,8.4-3.2,12.2-5.5c6.4-3.9,12.1-8.9,16.8-14.8
	c5-6.4,8.8-13.7,11.2-21.5c1.5-4.8,2.5-9.7,3.2-14.7c0.6-4,1.1-8.1,1.6-12.1c0.2-1.9,0.1-2.1-1.8-2.1
	C119.1,54.2,63.4,54.2,63.4,54.2z"/>
<path class="st0" d="M366.8,0.4h-7.2c-5.1,0-10.1,0-15.2,0c-1.2,0-1.9,0.4-2,1.7c0,0.9-0.1,1.7-0.3,2.6c-0.9,5.8-1.8,11.5-2.6,17.2
	c-0.9,6.3-1.8,12.7-2.6,19.1c-0.2,1.8-0.4,3.6-0.8,5.5c-0.1,0.4-0.4,0.8-0.8,1c-0.1,0.1-0.7-0.3-0.9-0.6c-1.9-3.6-5-5.8-8.4-7.5
	c-4.3-2.2-9.1-2.8-13.9-3c-2.5,0.1-5,0.3-7.5,0.6c-5,0.5-9.9,2-14.3,4.5c-6.2,3.3-11.6,7.9-15.8,13.5c-5.2,6.3-8.7,13.8-10.1,21.9
	c-0.8,4.3-1.3,8.6-1.6,12.9c0,2.7,0.1,5.3,0.5,8c0.4,5,1.8,9.8,4,14.3c3.1,6.3,8,11.5,14.2,14.9c5,2.6,10.7,4,16.4,4
	c2.9,0,5.8-0.3,8.7-0.7c3.8-0.6,7.5-1.7,11-3.4c4.7-2.2,8.8-5.5,12.1-9.5c0.3-0.3,0.7-0.5,1.1-0.6c0.2,0.3,0.4,0.7,0.6,1.1
	c0.7,3.2,1.3,6.4,1.9,9.6c0,0.8,0.7,1.4,1.5,1.4c0.1,0,0.1,0,0.2,0c2.3-0.1,4.6,0,7,0s4.7,0,7.1,0c0.9,0.1,1.8-0.5,1.9-1.4
	c0-0.1,0-0.2,0-0.3c0.3-2.4,0.7-4.7,1-7.1c0.7-5.1,1.5-10.2,2.2-15.4c1-7,2-14,3-21c0.9-6.8,1.9-13.7,2.8-20.5
	c0.6-4.3,1.1-8.6,1.8-12.9c0.8-5.6,1.6-11.1,2.4-16.7c0.8-5.8,1.5-11.5,2.4-17.3c0.6-4.6,1.3-9.2,1.9-13.8
	C368.6,0.8,368.2,0.4,366.8,0.4z M331.2,90.8c-2.3,6.5-6,11.8-12.1,15.4c-4.6,2.7-10.1,3.7-15.3,2.8c-4.2-0.7-8-3.2-10.2-6.9
	c-2.4-3.8-3.7-8.1-3.9-12.6c-0.4-4.8,0.3-9.5,2-14c2.5-6.8,6.8-12.3,13.5-15.5c4.2-2,9.1-2.6,13.6-1.6c5.2,1,9.5,4.5,11.7,9.3
	c1.6,3.5,2.4,7.4,2.4,11.2C332.9,83,332.4,87,331.2,90.8z"/>
<path class="st0" d="M431.1,0.4h-43.2c-3.1,0-3.2,0.1-3.6,3.2c-0.7,5.9-1.5,11.9-2.4,17.8c-0.8,5.7-1.6,11.3-2.4,16.9
	c-0.9,6.2-1.6,12.3-2.5,18.5c-0.8,5.7-1.7,11.4-2.5,17.1s-1.5,11.7-2.3,17.5c-0.9,6.9-1.9,13.7-2.9,20.6c-0.7,5-1.4,10.1-2.1,15.2
	c-0.2,1.3,0.1,1.7,1.4,1.7c7.5,0,15,0,22.5,0c1.5,0,1.8-0.3,2-1.8c0.6-4.3,1.2-8.6,1.8-12.9c1-6.8,1.9-13.6,2.9-20.3
	c0.8-5.8,1.6-11.7,2.4-17.5c0.1-0.9,0.5-1.4,1.5-1.3h1.2c17.2,0,34.5,0,51.7,0c0.9,0,1.5-0.3,1.6-1.2c0.2-1.6,0.5-3.1,0.7-4.7
	c0.6-4.4,1.1-8.8,1.7-13.2c0.2-1.6,0.1-1.9-1.5-1.9c-17.3,0-34.7,0-52.1,0c-1.5,0-1.8-0.2-1.6-1.7c0.6-4.4,1.2-8.8,1.9-13.3
	s1.3-8.7,1.8-13c0.2-1.7,0.4-2,2.2-2h13.5c16.6,0,33.1,0,49.7,0c1,0,1.4-0.5,1.5-1.4c0.4-3.2,0.9-6.5,1.3-9.7
	c0.5-3.6,1.1-7.2,1.6-10.8c0.2-1.3-0.1-1.8-1.3-1.8H431.1z"/>
<path class="st0" d="M219.1,67.9c-0.6-5.1-2.2-10-4.7-14.5c-2.4-4.3-5.7-8.1-9.6-11.2c-3.1-2.5-6.7-4.5-10.5-5.8
	c-3.5-1.4-7.3-2.2-11.1-2.3c-4.4-0.2-8.8,0-13.1,0.4c-6.7,0.9-13.1,3.1-18.8,6.5c-3.9,2.3-7.5,5-10.8,8c-3.1,2.9-5.8,6.2-8.1,9.7
	c-3,4.7-5.2,9.9-6.5,15.3c-1.1,4.3-1.5,8.7-1.3,13.1c-0.4,7.4,1.2,14.7,4.7,21.2c2.1,4,5,7.4,8.5,10.2c2.5,2,5.2,3.8,8,5.3
	c3.3,1.6,6.8,2.8,10.4,3.4c4.7,0.8,9.5,1,14.3,0.6c4.6-0.2,9.1-1.1,13.4-2.8c3.4-1.3,6.7-2.8,9.9-4.6c4.8-2.8,9.2-6.4,12.9-10.6
	c3.6-3.9,6.5-8.5,8.6-13.4c1.6-3.7,2.7-7.7,3.3-11.7C219.7,79.3,219.8,73.6,219.1,67.9z M193.6,82.3c-1.1,8.8-4.9,16.2-12.3,21.3
	c-2.9,2.1-6.2,3.3-9.7,3.6c-1.1,0.1-2.2,0.3-2.8,0.3c-7.8-0.2-13.1-3.4-16.3-10.1c-1.3-3.1-2.1-6.3-2.3-9.7c-0.3-3.5,0-7.1,0.8-10.6
	c1.7-8.4,5.9-15.3,13.4-19.8c5.3-3.1,11.1-4.2,17.1-2.2c3.3,1.2,6.1,3.3,8.1,6.2c2.6,3.7,4.1,8,4.3,12.5
	C194.1,76.8,194,79.5,193.6,82.3z"/>
<path class="st0" d="M583.5,128.9c3.8,0,7.5,0,11.2,0c1.4,0,1.8-0.3,2-1.7c0.2-1.7,0.4-3.4,0.7-5.1c0.7-5.2,1.5-10.3,2.2-15.5
	c0.7-4.7,1.3-9.4,1.9-14.1c0.5-4,0.9-7.9,1.5-11.9c0.8-5.4,1.6-10.8,1-16.3c-0.3-4-1.4-7.9-3-11.6c-2.5-5.5-6.8-10.1-12.2-12.8
	c-4.7-2.3-9.9-3.5-15.1-3.5c-3.3,0-6.7,0.2-10,0.7c-5.1,0.6-9.9,2.5-14,5.5c-3.1,2.2-5.9,4.8-8.3,7.7c-0.5,0.4-1,0.7-1.5,0.9
	c-0.3-0.5-0.6-1-0.7-1.5c-0.5-3.1-0.9-6.2-1.3-9.2c-0.1-1-0.6-1.7-1.7-1.7c-4.5,0-9.1,0-13.7,0c-0.7-0.1-1.4,0.4-1.4,1.2
	c0,0.1,0,0.2,0,0.2c-0.1,0.9-0.1,1.8-0.3,2.7c-0.8,5.7-1.7,11.4-2.5,17.1s-1.5,11.5-2.3,17.3S514,89,513.2,94.9
	c-0.5,3.7-0.9,7.4-1.5,11.2c-0.3,2.7-0.8,5.3-1.2,7.9c-0.6,4.5-1.2,9-1.9,13.5c-0.1,0.9,0.3,1.4,1.2,1.4h22.5c1.5,0,2.1-0.4,2.2-1.6
	c0.7-4.7,1.4-9.4,2-14.1c0.8-5.8,1.5-11.5,2.3-17.3c0.9-6.2,1.8-12.4,2.7-18.6c0.4-3.1,1.5-6,3.2-8.5c4.7-6.9,11.1-10.4,19.5-9.6
	c1.8,0.2,3.5,0.7,5.1,1.4c5.1,2.4,7.2,6.9,8,12.2c0.6,4.4-0.7,8.6-1.2,12.8c-0.7,5.8-1.7,11.7-2.5,17.5c-0.5,3.5-0.9,7-1.4,10.6
	c-0.6,4.4-1.3,8.8-1.9,13.3c-0.2,1.5,0.2,1.8,1.6,1.8L583.5,128.9z"/>
<path class="st0" d="M234.8,128.8c3.2,0,6.4,0,9.6,0c3.9,0.1,3.4,0.1,4-3.5c1.1-6.9,2-13.9,3-20.8s2-14.1,3-21.1
	c1-6.8,1.9-13.7,2.9-20.5c0.6-4.4,1.2-8.8,1.8-13.2c0.8-5.5,1.7-11,2.4-16.4c0.8-5.9,1.6-11.9,2.4-17.8c0.6-4.5,1.3-8.9,1.9-13.4
	c0.2-1.4-0.1-1.8-1.3-1.8c-7.7,0-15.3,0-23,0c-0.8-0.1-1.5,0.4-1.6,1.2c0,0.1,0,0.1,0,0.2c-0.2,2-0.6,4.1-0.9,6.2l-2.9,20.2
	c-0.7,5.2-1.5,10.4-2.2,15.6l-2.9,21c-1,7.1-2,14.3-3,21.4c-0.9,6.6-1.9,13.2-2.8,19.8c-1,7-2,14-2.9,21.1c-0.2,1.6,0,1.8,1.6,1.8
	L234.8,128.8L234.8,128.8z"/>
<path class="st0" d="M494.4,128.9c0.9,0.2,1.7-0.4,1.8-1.3c0-0.1,0-0.2,0-0.4c0.3-2.1,0.5-4.2,0.9-6.3c0.9-6.6,1.9-13.2,2.8-19.8
	c0.8-5.8,1.5-11.6,2.3-17.4c1-6.9,2-13.7,2.9-20.6c1-7.4,2-14.8,3.1-22.2c0.3-2,0-2.3-2-2.3h-21.5c-0.9,0-1.5,0.3-1.6,1.3
	c-0.9,6.6-1.9,13.3-2.8,19.9s-1.8,13.5-2.8,20.3l-1.8,13.5c-0.5,4-1.1,7.9-1.6,11.8c-0.5,3.8-1.1,7.6-1.6,11.4
	c-0.5,3.4-1,6.9-1.4,10.3c-0.2,1.4,0.1,1.6,1.5,1.6h10.9C487.1,128.9,490.7,128.8,494.4,128.9z"/>
<linearGradient id="SVGID_1_" gradientUnits="userSpaceOnUse" x1="485.6008" y1="94.9429" x2="736.6548" y2="94.9429" gradientTransform="matrix(1 0 0 -1 0 188.694)">
	<stop  offset="0" style="stop-color:#B1681D"/>
	<stop  offset="1.000000e-02" style="stop-color:#B97322"/>
	<stop  offset="3.000000e-02" style="stop-color:#CE9230"/>
	<stop  offset="5.000000e-02" style="stop-color:#DFAA3A"/>
	<stop  offset="8.000000e-02" style="stop-color:#ECBB42"/>
	<stop  offset="0.1" style="stop-color:#F3C647"/>
	<stop  offset="0.14" style="stop-color:#F5C948"/>
	<stop  offset="0.31" style="stop-color:#EFB046"/>
	<stop  offset="0.32" style="stop-color:#EEAF45"/>
	<stop  offset="0.43" style="stop-color:#DC9024"/>
	<stop  offset="0.49" style="stop-color:#D58518"/>
	<stop  offset="0.54" style="stop-color:#D88C1D"/>
	<stop  offset="0.61" style="stop-color:#DF9F2C"/>
	<stop  offset="0.7" style="stop-color:#ECBE45"/>
	<stop  offset="0.75" style="stop-color:#F3D153"/>
	<stop  offset="0.76" style="stop-color:#F2CA50"/>
	<stop  offset="0.82" style="stop-color:#F0B749"/>
	<stop  offset="0.87" style="stop-color:#EFB046"/>
	<stop  offset="0.91" style="stop-color:#D79536"/>
	<stop  offset="0.97" style="stop-color:#BC7424"/>
	<stop  offset="1" style="stop-color:#B1681D"/>
</linearGradient>
<path class="st1" d="M694,128.3c4,0,8.1,0,12.1,0c1.4,0,1.6-0.5,1-1.7c-0.9-1.7-1.7-3.5-2.5-5.3c-2.1-4.6-4.2-9.3-6.3-13.9
	c-1.5-3.4-3.1-6.7-4.7-10.1c-1.8-3.8-3.5-7.7-5.2-11.5c-1.9-4.1-3.7-8.1-5.7-12.1c-0.5-0.9-0.3-1.9,0.4-2.7c1.1-1.4,2.2-2.8,3.3-4.2
	c6.9-9,13.7-18,20.6-27c5.8-7.6,11.7-15.2,17.5-22.9c3.9-5.1,7.9-10.1,11.8-15.2c0.2-0.3,0.4-0.8,0.3-1c-0.3-0.3-0.6-0.4-1-0.4
	c-8.1,0-16.1,0-24.2,0c-0.6,0-1.2,0.3-1.6,0.8c-2.9,3.9-5.7,7.8-8.5,11.7c-5.7,7.7-11.3,15.4-17,23.1c-5.6,7.7-11.2,15.5-16.3,23.3
	c-0.2,0.3-0.5,0.8-0.9,0.8s-0.4-0.7-0.5-1c-0.9-2.8-1.7-5.5-2.6-8.3c-0.7-2.1-1.5-4.1-2.2-6.2c-0.8-2.3-1.5-4.5-2.3-6.8
	c-1.2-3.4-2.5-6.7-3.7-10.1c-0.2-0.8-0.9-1.3-1.6-1.2c-8.1,0-16.1,0-24.2,0c-1,0-1.3,0.5-1,1.4s0.8,1.8,1.2,2.7
	c1.2,2.7,2.4,5.3,3.5,8c1.5,3.4,2.9,6.8,4.4,10.2s3.1,7,4.6,10.5c1.5,3.5,3.2,7,4.7,10.6c0.5,1.2,1.3,2.4,0.2,3.8
	c-1.5,2-2.8,4.1-4.3,6.2c-4.2,6-8.4,12-12.5,18.1c-3.2,4.6-6.3,9.2-9.4,13.8l-12.9,18.9l-11,16l-11,16c-5.3,7.7-10.6,15.4-15.9,23.2
	c-0.2,0.3-0.6,0.8-0.4,1.2s0.7,0.3,1.1,0.3c7.4,0,14.8-0.1,22.1,0c2,0.2,3.9-0.8,4.8-2.6c3.8-6.2,7.9-12.2,11.8-18.2
	c3.7-5.7,7.4-11.3,11.2-16.9c4.8-7.3,9.6-14.6,14.4-21.9c4.9-7.4,9.7-14.8,14.5-22.2c4.2-6.4,8.3-12.8,12.4-19.2
	c0.2-0.3,0.6-0.7,0.8-0.7c0.4,0.2,0.7,0.5,0.9,0.9c0.3,0.8,0.5,1.7,0.8,2.5c1.4,3.8,2.9,7.5,4.4,11.2c1.4,3.7,2.9,7.4,4.3,11.1
	c2,4.9,3.9,9.8,5.9,14.7c0.8,2,1,2.2,3.2,2.2L694,128.3L694,128.3z M499.8,0.3c-8.5,0.1-14.2,5.6-14.2,14.1c0,8.2,6,13.9,14.9,13.6
	c7-0.2,14-6,13.4-13.8C514.5,6.4,507.7,0.2,499.8,0.3z"/>
</svg>
